{
  "project_info": {
    "project_number": "47868676010",
    "firebase_url": "https://limor-c69d4.firebaseio.com",
    "project_id": "limor-c69d4",
    "storage_bucket": "limor-c69d4.appspot.com"
  },
  "client": [
    {
      "client_info": {
        "mobilesdk_app_id": "1:47868676010:android:7360179615dd5e51",
        "android_client_info": {
          "package_name": "com.tapper.limor"
        }
      },
      "oauth_client": [
        {
          "client_id": "47868676010-k19u2j284uqgj66r5apbrjso4mmqpd1p.apps.googleusercontent.com",
          "client_type": 3
        }
      ],
      "api_key": [
        {
          "current_key": "AIzaSyCqDVX3OpcLY7Ioywc-Yvcl62CZDplly78"
        }
      ],
      "services": {
        "analytics_service": {
          "status": 1
        },
        "appinvite_service": {
          "status": 1,
          "other_platform_oauth_client": []
        },
        "ads_service": {
          "status": 2
        }
      }
    }
  ],
  "configuration_version": "1"
}