{
  "prepare_queue": {
    "installed": [],
    "uninstalled": []
  },
  "config_munge": {
    "files": {}
  },
  "installed_plugins": {
    "cordova-plugin-device": {
      "PACKAGE_NAME": "com.tapper.limor"
    },
    "cordova-plugin-ionic-webview": {
      "PACKAGE_NAME": "com.tapper.limor"
    },
    "cordova-plugin-splashscreen": {
      "PACKAGE_NAME": "com.tapper.limor"
    },
    "cordova-plugin-whitelist": {
      "PACKAGE_NAME": "com.tapper.limor"
    },
    "ionic-plugin-keyboard": {
      "PACKAGE_NAME": "com.tapper.limor"
    },
    "cordova-plugin-firebase": {
      "PACKAGE_NAME": "com.tapper.limor"
    }
  },
  "dependent_plugins": {}
}