{
  "cordova-plugin-device": {
    "source": {
      "type": "registry",
      "id": "cordova-plugin-device@1.1.4"
    },
    "is_top_level": true,
    "variables": {}
  },
  "cordova-plugin-ionic-webview": {
    "source": {
      "type": "registry",
      "id": "cordova-plugin-ionic-webview@^1.1.11"
    },
    "is_top_level": true,
    "variables": {}
  },
  "cordova-plugin-splashscreen": {
    "source": {
      "type": "registry",
      "id": "cordova-plugin-splashscreen@~4.0.1"
    },
    "is_top_level": true,
    "variables": {}
  },
  "cordova-plugin-whitelist": {
    "source": {
      "type": "registry",
      "id": "cordova-plugin-whitelist@1.3.1"
    },
    "is_top_level": true,
    "variables": {}
  },
  "ionic-plugin-keyboard": {
    "source": {
      "type": "registry",
      "id": "ionic-plugin-keyboard@~2.2.1"
    },
    "is_top_level": true,
    "variables": {}
  },
  "cordova-plugin-firebase": {
    "source": {
      "type": "registry",
      "id": "cordova-plugin-firebase@^1.0.5"
    },
    "is_top_level": true,
    "variables": {}
  }
}